﻿{
    "connectionStringDocker": "mongodb://claspmongo:27017/nodeMongoDb",
    "connectionStringDev": "mongodb://localhost/node-mongo-api",
    
    "secret": "THIS IS USED TO SIGN AND VERIFY JWT TOKENS, REPLACE IT WITH YOUR OWN SECRET, IT CAN BE ANY STRING"
}
