{
    "name": "Rhythm_Experiment",
    "folder": "Second_Task",
    "mode": "rhythm",
    "flow": [
        {
            "type": "instruction",
            "pictureFileName": [
                "instructions_screens/Instruction_screen_second_task_general_1.png",
                "instructions_screens/Instruction_screen_second_task_general_2.png",
                "instructions_screens/Instruction_screen_second_task_general_3.png",
                "instructions_screens/Familiarization_screen_second_task_1.png"
            ]
        },
        {
            "type": "rest",
            "pictureFileName": [
                "instructions_screens/Melody_keys_simple_melody_A1.png"
            ],
            "enableSoundFlag": true,
            "timeoutInSeconds": 10
        },
        {
            "type": "instruction",
            "pictureFileName": [
                "instructions_screens/Familiarization_screen_second_task_2.png",
                "instructions_screens/Instruction_reminder_second_task.png"
            ]
        },
        { 
            "type": "cue",
            "pictureFileName": [
                "instructions_screens/Training_screen_simple_melody_A1_first_note_first_part.png",
                "instructions_screens/Training_screen_simple_melody_A1_first_note_second_part.png",
                "instructions_screens/Training_screen_simple_melody_A1_first_note_first_part.png"
            ],
            "midiFileName": [
                "melodies/simple_melody_A1_RB_short_version_part_1.mid",
                "melodies/simple_melody_A1_RB_short_version_part_2.mid",
                "melodies/simple_melody_A1_RB_complete.mid"
            ],
            "followedBy": "playing",
            "maxNumBlock": 3
        },
        {
            "type": "playing",
            "pictureFileName": [""],
            "progressBarFlag": true,
            "logFlag": true,
            "followedBy": "feedback",
            "timeoutInSeconds": 60
        },
        {
            "type": "feedback"
        },

        {
            "type": "instruction",
            "pictureFileName": [
                "instructions_screens/Instruction_screen_second_task_next_melody.png",
                "instructions_screens/Familiarization_screen_second_task_1.png"]
        },
        {
            "type": "rest",
            "pictureFileName": [
                "instructions_screens/Melody_keys_simple_melody_A2.png"
            ],
            "enableSoundFlag": true,
            "timeoutInSeconds": 3
        },
        {
            "type": "instruction",
            "pictureFileName": [
                "instructions_screens/Familiarization_screen_second_task_2.png",
                "instructions_screens/Instruction_reminder_second_task.png"
            ]
        },
        { 
            "type": "cue",
            "pictureFileName": [
                "instructions_screens/Training_screen_simple_melody_A2_first_note_first_part.png",
                "instructions_screens/Training_screen_simple_melody_A2_first_note_second_part.png",
                "instructions_screens/Training_screen_simple_melody_A2_first_note_first_part.png"
            ],
            "midiFileName": [
                "melodies/simple_melody_A2_RB_short_version_part_1.mid",
                "melodies/simple_melody_A2_RB_short_version_part_2.mid",
                "melodies/simple_melody_A2_RB_complete.mid"
            ],
            "followedBy": "playing",
            "maxNumBlock": 3
        },
        {
            "type": "playing",
            "pictureFileName": [""],
            "progressBarFlag": true,
            "logFlag": true,
            "followedBy": "feedback",
            "timeoutInSeconds": 60
        },
        {
            "type": "feedback"
        },
        {
            "type": "instruction",
            "pictureFileName": [
                "instructions_screens/Instruction_screen_second_task_next_melody.png",
                "instructions_screens/Familiarization_screen_second_task_1.png"]
        },
        {
            "type": "rest",
            "pictureFileName": [
                "instructions_screens/Melody_keys_simple_melody_A3.png"
            ],
            "enableSoundFlag": true,
            "timeoutInSeconds": 30
        },
        {
            "type": "instruction",
            "pictureFileName": [
                "instructions_screens/Familiarization_screen_second_task_2.png",
                "instructions_screens/Instruction_reminder_second_task.png"
            ]
        },
        { 
            "type": "cue",
            "pictureFileName": [
                "instructions_screens/Training_screen_simple_melody_A3_first_note_first_part.png",
                "instructions_screens/Training_screen_simple_melody_A3_first_note_second_part.png",
                "instructions_screens/Training_screen_simple_melody_A3_first_note_first_part.png"
            ],
            "midiFileName": [
                "melodies/simple_melody_A3_RB_short_version_part_1.mid",
                "melodies/simple_melody_A3_RB_short_version_part_2.mid",
                "melodies/simple_melody_A3_RB_complete.mid"
            ],
            "followedBy": "playing"
        },
        {
            "type": "playing",
            "pictureFileName": [""],
            "progressBarFlag": true,
            "logFlag": true,
            "followedBy": "feedback",
            "timeoutInSeconds": 60
        },
        {
            "type": "feedback"
        },

        {
            "type": "instruction",
            "pictureFileName": [
                "instructions_screens/Instruction_screen_second_task_next_melody.png",
                "instructions_screens/Familiarization_screen_second_task_1.png"]
        },
        {
            "type": "rest",
            "pictureFileName": [
                "instructions_screens/Melody_keys_simple_melody_A4.png"
            ],
            "enableSoundFlag": true,
            "timeoutInSeconds": 30
        },
        {
            "type": "instruction",
            "pictureFileName": [
                "instructions_screens/Familiarization_screen_second_task_2.png",
                "instructions_screens/Instruction_reminder_second_task.png"
            ]
        },
        { 
            "type": "cue",
            "pictureFileName": [
                "instructions_screens/Training_screen_simple_melody_A4_first_note_first_part.png",
                "instructions_screens/Training_screen_simple_melody_A4_first_note_second_part.png",
                "instructions_screens/Training_screen_simple_melody_A4_first_note_first_part.png"
            ],
            "midiFileName": [
                "melodies/simple_melody_A4_RB_short_version_part_1.mid",
                "melodies/simple_melody_A4_RB_short_version_part_2.mid",
                "melodies/simple_melody_A4_RB_complete.mid"
            ],
            "followedBy": "playing"
        },
        {
            "type": "playing",
            "pictureFileName": [""],
            "progressBarFlag": true,
            "logFlag": true,
            "followedBy": "feedback",
            "timeoutInSeconds": 60
        },
        {
            "type": "feedback"
        },

        {
            "type": "end",
            "pictureFileName": ["instructions_screens/End_training_second_task.png"]
        }
    ]
}